<svg version="1.1" id="Layer_1" xmlns="http://www.w3.org/2000/svg" xmlns:xlink="http://www.w3.org/1999/xlink" width="18px" height="18px" viewBox="0 0 18 18" enable-background="new 0 0 18 18" xml:space="preserve">
<path fill="#1C2021" d="M11.3,9.8l-2-1.1V4.6c1.1-0.2,2-1.1,2-2.3C11.3,1,10.3,0,9,0C7.7,0,6.7,1,6.7,2.3c0,1.2,0.9,2.1,2,2.3v3.7 l-2-1.1L1.3,9.3v8.2l5.3-2.2l4.7,2.7l5.3-2.7V7.2L11.3,9.8z M6,14.9l-4,1.6V9.8l4-1.6V14.9z M7.3,2.3c0-0.9,0.7-1.7,1.7-1.7
	c0.9,0,1.7,0.7,1.7,1.7C10.7,3.3,9.9,4,9,4C8.1,4,7.3,3.3,7.3,2.3z M11.3,17.3l-4.7-2.7V7.9l2,1.1V12h0.7V9.4l2,1.1V17.3z M16,14.9 l-4,2v-6.7l4-2V14.9z"/>
</svg>