<svg version="1.1" xmlns="http://www.w3.org/2000/svg" xmlns:xlink="http://www.w3.org/1999/xlink" width="21px" height="21px" viewBox="-501 374 21 21" enable-background="new -501 374 21 21" xml:space="preserve">
	<path fill="#DEE2E6" d="M-490.5,374c-5.8,0-10.5,4.7-10.5,10.5s4.7,10.5,10.5,10.5s10.5-4.7,10.5-10.5S-484.7,374-490.5,374z M-483.1,390.6c-1-0.4-3.2-1.2-4.6-1.6c-0.1,0-0.1,0-0.1-0.5c0-0.4,0.2-0.8,0.3-1.2c0.2-0.4,0.4-1,0.5-1.6c0.2-0.2,0.5-0.7,0.7-1.7
	c0.2-0.8,0.1-1.1,0-1.4v-0.1c0-0.2,0-1.2,0.2-2c-0.1-0.4-0.2-1.5-0.9-2.5c-0.5-0.6-1.3-1.3-3-1.4h-0.9c-1.6,0.1-2.4,0.8-2.9,1.4 c-0.7,1-0.9,2.1-0.8,2.6c0.1,0.8,0.2,1.8,0.2,2v0.1c-0.1,0.3-0.2,0.6,0,1.4c0.1,0.9,0.4,1.4,0.6,1.6c0.1,0.6,0.3,1.2,0.5,1.6
	c0.1,0.3,0.2,0.7,0.2,1.2s0,0.5-0.1,0.5c-1.5,0.4-3.8,1.3-4.6,1.6c-1.4-1.7-2.3-3.8-2.3-6.2c0-5.3,4.3-9.6,9.6-9.6s9.6,4.3,9.6,9.6C-480.9,386.8-481.7,389-483.1,390.6z"/>
</svg>